…
``` r
library(yardstick)
library(erer)

set.seed(123)
predictions =
  data.frame(truth = runif(100),
             predict_model_1 = rnorm(100, mean = 1,sd =2),
             predict_model_2 = rnorm(100, mean = 0,sd =2))

tibble(predictions)
#> # A tibble: 100 x 3
#>     truth predict_model_1 predict_model_2
#>     <dbl>           <dbl>           <dbl>
#>  1 0.288            1.51            1.58 
#>  2 0.788            0.943           1.54 
#>  3 0.409            0.914           0.664
#>  4 0.883            3.74           -2.02 
#>  5 0.940            0.548          -0.239
#>  6 0.0456           4.03           -0.561
#>  7 0.528           -2.10            1.13 
#>  8 0.892            2.17           -0.745
#>  9 0.551            1.25            1.95 
#> 10 0.457            1.43           -0.749
#> # … with 90 more rows
```
…
``` r
pliegues = 1:13
names(pliegues) = pliegues

variables = c("delitos", "temperatura", "mm_agua", "lluvia", "viento")
names(variables) = variables

sliding_window(data = data_longer_crime %>% dplyr::select(-c(long,lat)),
               inicio = 13,
               pliegues = pliegues,
               variables = variables)
#> # A tibble: 26,299 x 32
#>    id     pliegue delitos_last_ye… delitos_last_12 delitos_last_6 delitos_last_3
#>    <chr>    <int>            <dbl>           <dbl>          <dbl>          <dbl>
#>  1 esqui…       1                1              73             41             20
#>  2 esqui…       1                5             106             47             19
#>  3 esqui…       1                4              25             11              4
#>  4 esqui…       1                0               4              1              1
#>  5 esqui…       1                0              31             16              7
#>  6 esqui…       1                1              11              6              3
#>  7 esqui…       1                1              16             11              4
#>  8 esqui…       1                1              19              8              5
#>  9 esqui…       1                0               9              6              4
#> 10 esqui…       1                3              27             14             10
#> # … with 26,289 more rows, and 26 more variables: delitos_last_1 <dbl>,
#> #   delitos <dbl>, temperatura_last_year <dbl>, temperatura_last_12 <dbl>,
#> #   temperatura_last_6 <dbl>, temperatura_last_3 <dbl>,
#> #   temperatura_last_1 <dbl>, temperatura <dbl>, mm_last_year <dbl>,
#> #   mm_last_12 <dbl>, mm_last_6 <dbl>, mm_last_3 <dbl>, mm_last_1 <dbl>,
#> #   mm <dbl>, dias_last_year <dbl>, dias_last_12 <dbl>, dias_last_6 <dbl>,
#> #   dias_last_3 <dbl>, dias_last_1 <dbl>, dias <dbl>, veloc_last_year <dbl>,
#> #   veloc_last_12 <dbl>, veloc_last_6 <dbl>, veloc_last_3 <dbl>,
#> #   veloc_last_1 <dbl>, veloc <dbl>
```
…
