Swiss knife of data for R • sknifedatar
…
🔹 Function multieval

For a set of predictions from different models, it allows you to evaluate multiple metrics and return the results in a tabular format that makes it easy to compare the predictions.

library(yardstick)
library(erer)

set.seed(123)
predictions =
  data.frame(truth = runif(100),
             predict_model_1 = rnorm(100, mean = 1,sd =2),
             predict_model_2 = rnorm(100, mean = 0,sd =2))

tibble(predictions)
#> # A tibble: 100 x 3
#>     truth predict_model_1 predict_model_2
#>     <dbl>           <dbl>           <dbl>
#>  1 0.288            1.51            1.58 
#>  2 0.788            0.943           1.54 
#>  3 0.409            0.914           0.664
#>  4 0.883            3.74           -2.02 
#>  5 0.940            0.548          -0.239
#>  6 0.0456           4.03           -0.561
#>  7 0.528           -2.10            1.13 
#>  8 0.892            2.17           -0.745
#>  9 0.551            1.25            1.95 
#> 10 0.457            1.43           -0.749
#> # … with 90 more rows
…
🔹 Function insert_na

This function allows adding NA values to a data frame, being able to select the columns and the proportion of NAs desired.

insert_na(data = iris, columnas = c("Sepal.Length","Petal.Length"), p = 0.25)
#> # A tibble: 150 x 5
#>    Sepal.Width Petal.Width Species Sepal.Length Petal.Length
#>          <dbl>       <dbl> <fct>          <dbl>        <dbl>
#>  1         3.5         0.2 setosa           5.1         NA  
#>  2         3           0.2 setosa          NA            1.4
#>  3         3.2         0.2 setosa           4.7          1.3
#>  4         3.1         0.2 setosa          NA            1.5
#>  5         3.6         0.2 setosa          NA            1.4
#>  6         3.9         0.4 setosa           5.4          1.7
#>  7         3.4         0.3 setosa           4.6          1.4
#>  8         3.4         0.2 setosa          NA            1.5
#>  9         2.9         0.2 setosa           4.4          1.4
#> 10         3.1         0.1 setosa           4.9          1.5
#> # … with 140 more rows
…
