Geospatial • sknifedatar
…
This feature allows you to apply a monthly moving sliding window transformation on a data set. The number of folds and the types of variables to be calculated are defined. For a detailed explanation and use case of this function with R code, see Crime occurrence prediction / sliding_window.

pliegues = 1:13
names(pliegues) = pliegues

variables = c("delitos", "temperatura", "mm_agua", "lluvia", "viento")
names(variables) = variables

sliding_window(data = data_longer_crime %>% dplyr::select(-c(long,lat)),
               inicio = 13,
               pliegues = pliegues,
               variables = variables)

#> # A tibble: 26,299 x 32
#>    id     pliegue delitos_last_ye… delitos_last_12 delitos_last_6 delitos_last_3
#>    <chr>    <int>            <dbl>           <dbl>          <dbl>          <dbl>
#>  1 esqui…       1                1              73             41             20
#>  2 esqui…       1                5             106             47             19
#>  3 esqui…       1                4              25             11              4
#>  4 esqui…       1                0               4              1              1
#>  5 esqui…       1                0              31             16              7
#>  6 esqui…       1                1              11              6              3
#>  7 esqui…       1                1              16             11              4
#>  8 esqui…       1                1              19              8              5
#>  9 esqui…       1                0               9              6              4
#> 10 esqui…       1                3              27             14             10
#> # … with 26,289 more rows, and 26 more variables: delitos_last_1 <dbl>,
#> #   delitos <dbl>, temperatura_last_year <dbl>, temperatura_last_12 <dbl>,
#> #   temperatura_last_6 <dbl>, temperatura_last_3 <dbl>,
#> #   temperatura_last_1 <dbl>, temperatura <dbl>, mm_last_year <dbl>,
#> #   mm_last_12 <dbl>, mm_last_6 <dbl>, mm_last_3 <dbl>, mm_last_1 <dbl>,
#> #   mm <dbl>, dias_last_year <dbl>, dias_last_12 <dbl>, dias_last_6 <dbl>,
#> #   dias_last_3 <dbl>, dias_last_1 <dbl>, dias <dbl>, veloc_last_year <dbl>,
#> #   veloc_last_12 <dbl>, veloc_last_6 <dbl>, veloc_last_3 <dbl>,
#> #   veloc_last_1 <dbl>, veloc <dbl>
…
